…
``` r
# Five-Year Age Groups
getData("D176", list(list("Group Results By", "D176.V51"),
                     list("O_age", "D176.V51")))
```

    ## # A tibble: 23 × 4
    ##    `Five-Year Age Groups` Deaths Population  `Crude Rate`
    ##    <chr>                   <dbl> <chr>       <chr>       
    ##  1 < 1 year                83046 18,836,290  440.9       
    ##  2 1-4 years               15065 78,454,544  19.2        
    ##  3 5-9 years                9476 101,104,670 9.4         
    ##  4 10-14 years             13544 103,941,064 13.0        
    ##  5 15-19 years             47388 105,034,578 45.1        
    ##  6 20-24 years             89950 108,290,784 83.1        
    ##  7 25-29 years            125520 116,764,501 107.5       
    ##  8 30-34 years            155976 113,082,532 137.9       
    ##  9 35-39 years            186230 108,786,020 171.2       
    ## 10 40-44 years            219183 100,559,588 218.0       
    ## # … with 13 more rows

``` r
# Single-Year Age Groups
getData("D176", list(list("Group Results By", "D176.V51"),
                     list("O_age", "D176.V51")))
```

    ## # A tibble: 23 × 4
    ##    `Five-Year Age Groups` Deaths Population  `Crude Rate`
    ##    <chr>                   <dbl> <chr>       <chr>       
    ##  1 < 1 year                83046 18,836,290  440.9       
    ##  2 1-4 years               15065 78,454,544  19.2        
    ##  3 5-9 years                9476 101,104,670 9.4         
    ##  4 10-14 years             13544 103,941,064 13.0        
    ##  5 15-19 years             47388 105,034,578 45.1        
    ##  6 20-24 years             89950 108,290,784 83.1        
    ##  7 25-29 years            125520 116,764,501 107.5       
    ##  8 30-34 years            155976 113,082,532 137.9       
    ##  9 35-39 years            186230 108,786,020 171.2       
    ## 10 40-44 years            219183 100,559,588 218.0       
    ## # … with 13 more rows

``` r
# Single-Year Ages
getData("D176", list(list("Group Results By", "D176.V52"),
                     list("O_age", "D176.V52")))
```

    ## # A tibble: 102 × 4
    ##    `Single-Year Ages` Deaths Population `Crude Rate`
    ##    <chr>               <dbl> <chr>      <chr>       
    ##  1 < 1 year            83046 18,836,290 440.9       
    ##  2 1 year               5864 19,064,151 30.8        
    ##  3 2 years              3863 19,472,556 19.8        
    ##  4 3 years              2954 19,799,805 14.9        
    ##  5 4 years              2384 20,118,032 11.9        
    ##  6 5 years              2156 20,201,407 10.7        
    ##  7 6 years              1973 20,152,993 9.8         
    ##  8 7 years              1802 20,170,941 8.9         
    ##  9 8 years              1770 20,226,173 8.8         
    ## 10 9 years              1775 20,353,156 8.7         
    ## # … with 92 more rows
…
``` r
# Single/Multi Race 31
getData("D176", list(list("Group Results By", "D176.V44")))
```

    ## # A tibble: 27 × 2
    ##    `Single/Multi Race 31`                                     Deaths
    ##    <chr>                                                       <dbl>
    ##  1 White (only)                                             10808280
    ##  2 Black (only)                                              1663044
    ##  3 AIAN (American Indian or Alaskan Native) (only)             96287
    ##  4 Asian (only)                                               339775
    ##  5 NHOPI (Native Hawaiian or Other Pacific Islander) (only)    18564
    ##  6 Black and White                                             11856
    ##  7 Black and AIAN                                               3607
    ##  8 Black and Asian                                              1591
    ##  9 Black and NHOPI                                               522
    ## 10 AIAN and White                                              25109
    ## # … with 17 more rows
…
    ## # A tibble: 5 × 4
    ##   Year                            Deaths Population `Crude Rate`
    ##   <chr>                            <dbl>      <dbl>        <dbl>
    ## 1 2018                           2839205  327167434         868.
    ## 2 2019                           2854838  328239523         870.
    ## 3 2020                           3383729  329484123        1027 
    ## 4 2021 (provisional)             3442228  329484123        1045.
    ## 5 2022 (provisional and partial)  476136  329484123         144.

``` r
# Month
getData("D176", list(list("Group Results By", "D176.V1-level2")))
```

    ## # A tibble: 50 × 4
    ##    Month      Deaths Population     `Crude Rate`  
    ##    <chr>       <dbl> <chr>          <chr>         
    ##  1 Jan., 2018 286744 Not Applicable Not Applicable
    ##  2 Feb., 2018 236998 Not Applicable Not Applicable
    ##  3 Mar., 2018 248805 Not Applicable Not Applicable
    ##  4 Apr., 2018 233164 Not Applicable Not Applicable
    ##  5 May, 2018  228772 Not Applicable Not Applicable
    ##  6 Jun., 2018 220103 Not Applicable Not Applicable
    ##  7 Jul., 2018 225111 Not Applicable Not Applicable
    ##  8 Aug., 2018 224254 Not Applicable Not Applicable
    ##  9 Sep., 2018 218696 Not Applicable Not Applicable
    ## 10 Oct., 2018 233903 Not Applicable Not Applicable
    ## # … with 40 more rows
…
``` r
# MMWR Week
getData("D176", list(list("Group Results By", "D176.V100-level2"),
                     list("O_dates", "MMWR")))
```

    ## Couldn't find: "O_dates" but including anyway.

    ## # A tibble: 221 × 4
    ##    `MMWR Week`                           Deaths Population     `Crude Rate`  
    ##    <chr>                                  <dbl> <chr>          <chr>         
    ##  1 2018 Week 01 ending January 06, 2018   57113 Not Applicable Not Applicable
    ##  2 2018 Week 02 ending January 13, 2018   67495 Not Applicable Not Applicable
    ##  3 2018 Week 03 ending January 20, 2018   64647 Not Applicable Not Applicable
    ##  4 2018 Week 04 ending January 27, 2018   62780 Not Applicable Not Applicable
    ##  5 2018 Week 05 ending February 03, 2018  60974 Not Applicable Not Applicable
    ##  6 2018 Week 06 ending February 10, 2018  61110 Not Applicable Not Applicable
    ##  7 2018 Week 07 ending February 17, 2018  59779 Not Applicable Not Applicable
    ##  8 2018 Week 08 ending February 24, 2018  57793 Not Applicable Not Applicable
    ##  9 2018 Week 09 ending March 03, 2018     56692 Not Applicable Not Applicable
    ## 10 2018 Week 10 ending March 10, 2018     57093 Not Applicable Not Applicable
    ## # … with 211 more rows
…
    ## Message from query:
    ## Please select age value '< 1 year' or the Infant Age Groups button when using the 130 Cause or Leading Infants List.

    ## Error in getData("D176", list(list("Group Results By", "D176.V29"))): Internal Server Error (HTTP 500).

``` r
# UCD - ICD Chapter
getData("D176", list(list("Group Results By", "D176.V2-level1")))
```

    ## # A tibble: 21 × 4
    ##    `UCD - ICD Chapter`                            Deaths Population `Crude Rate`
    ##    <chr>                                           <dbl>      <dbl>        <dbl>
    ##  1 Certain infectious and parasitic diseases      2.78e5 1643859326         16.9
    ##  2 Neoplasms                                      2.54e6 1643859326        154. 
    ##  3 Diseases of the blood and blood-forming organ… 4.64e4 1643859326          2.8
    ##  4 Endocrine, nutritional and metabolic diseases  6.30e5 1643859326         38.3
    ##  5 Mental and behavioural disorders               5.72e5 1643859326         34.8
    ##  6 Diseases of the nervous system                 1.01e6 1643859326         61.3
    ##  7 Diseases of the eye and adnexa                 2.45e2 1643859326          0  
    ##  8 Diseases of the ear and mastoid process        3.5 e2 1643859326          0  
    ##  9 Diseases of the circulatory system             3.71e6 1643859326        226. 
    ## 10 Diseases of the respiratory system             1.11e6 1643859326         67.3
    ## # … with 11 more rows

``` r
# UCD - ICD Sub-Chapter
getData("D176", list(list("Group Results By", "D176.V2-level2")))
```

    ## # A tibble: 173 × 4
    ##    `UCD - ICD Sub-Chapter`                        Deaths Population `Crude Rate`
    ##    <chr>                                           <dbl>      <dbl> <chr>       
    ##  1 Intestinal infectious diseases                  29839 1643859326 1.8         
    ##  2 Tuberculosis                                     2329 1643859326 0.1         
    ##  3 Certain zoonotic bacterial diseases               176 1643859326 0.0         
    ##  4 Other bacterial diseases                       179839 1643859326 10.9        
    ##  5 Infections with a predominantly sexual mode o…    182 1643859326 0.0         
    ##  6 Other spirochaetal diseases                        71 1643859326 0.0         
    ##  7 Rickettsioses                                     104 1643859326 0.0         
    ##  8 Viral infections of the central nervous system   3010 1643859326 0.2         
    ##  9 Arthropod-borne viral fevers and viral haemor…    484 1643859326 0.0         
    ## 10 Viral infections characterized by skin and mu…   1990 1643859326 0.1         
    ## # … with 163 more rows

``` r
# Underlying Cause of death
getData("D176", list(list("Group Results By", "D176.V2-level3")))
```

    ## Error: 'NA' does not exist in current working directory ('/Users/joycerobbins/wonderapi/tests').

``` r
# UCD - ICD-10 113 Cause List
getData("D176", list(list("Group Results By", "D176.V4")))
```

    ## # A tibble: 135 × 4
    ##    `UCD - ICD-10 113 Cause List`                  Deaths Population `Crude Rate`
    ##    <chr>                                           <dbl>      <dbl>        <dbl>
    ##  1 #Salmonella infections (A01-A02)                  244 1643859326          0  
    ##  2 #Shigellosis and amebiasis (A03,A06)               29 1643859326          0  
    ##  3 Certain other intestinal infections (A04,A07-…  29533 1643859326          1.8
    ##  4 #Tuberculosis (A16-A19)                          2329 1643859326          0.1
    ##  5 Respiratory tuberculosis (A16)                   1591 1643859326          0.1
    ##  6 Other tuberculosis (A17-A19)                      738 1643859326          0  
    ##  7 #Whooping cough (A37)                              28 1643859326          0  
    ##  8 #Meningococcal infection (A39)                    115 1643859326          0  
    ##  9 #Septicemia (A40-A41)                          165169 1643859326         10  
    ## 10 #Syphilis (A50-A53)                               172 1643859326          0  
    ## # … with 125 more rows

``` r
# UCD - ICD-10 130 Cause List (Infants)
getData("D176", list(list("Group Results By", "D176.V12"),
                     list("V_D176.V5", "1")))
```

    ## # A tibble: 137 × 4
    ##    `UCD - ICD-10 130 Cause List (Infants)`        Deaths Population `Crude Rate`
    ##    <chr>                                           <dbl>      <dbl> <chr>       
    ##  1 Certain infectious and parasitic diseases (A0…   2023   18836290 10.7        
    ##  2 Certain intestinal infectious diseases (A00-A…     43   18836290 0.2         
    ##  3 #Diarrhea and gastroenteritis of infectious o…    640   18836290 3.4         
    ##  4 #Whooping cough (A37)                              11   18836290 Unreliable  
    ##  5 #Meningococcal infection (A39)                     16   18836290 Unreliable  
    ##  6 #Septicemia (A40-A41)                             525   18836290 2.8         
    ##  7 #Congenital syphilis (A50)                         13   18836290 Unreliable  
    ##  8 Viral diseases (A80-B34,U07.1)                    604   18836290 3.2         
    ##  9 Other and unspecified viral diseases (A81-B00…    600   18836290 3.2         
    ## 10 #Candidiasis (B37)                                 16   18836290 Unreliable  
    ## # … with 127 more rows
…
``` r
# UCD - Injury Mechanism & All Other Leading Causes
getData("D176", list(list("Group Results By", "D176.V23")))
```

    ## # A tibble: 67 × 4
    ##    `UCD - Injury Mechanism & All Other Leading …` Deaths Population `Crude Rate`
    ##    <chr>                                           <dbl>      <dbl>        <dbl>
    ##  1 Cut/Pierce                                      10638 1643859326          0.6
    ##  2 Drowning                                        17846 1643859326          1.1
    ##  3 Fall                                           152557 1643859326          9.3
    ##  4 Fire/Flame                                      12704 1643859326          0.8
    ##  5 Hot object/Substance                              320 1643859326          0  
    ##  6 Firearm                                        157334 1643859326          9.6
    ##  7 Machinery                                        1962 1643859326          0.1
    ##  8 Motor Vehicle Traffic                          145898 1643859326          8.9
    ##  9 Other Pedal cyclist                              1421 1643859326          0.1
    ## 10 Other Pedestrian                                 3508 1643859326          0.2
    ## # … with 57 more rows
…
``` r
# MCD - ICD Chapter
getData("D176", list(list("Group Results By", "D176.V13-level1")))
```

    ## # A tibble: 22 × 4
    ##    `MCD - ICD Chapter`                            Deaths Population `Crude Rate`
    ##    <chr>                                           <dbl>      <dbl>        <dbl>
    ##  1 Certain infectious and parasitic diseases      1.21e6 1643859326         73.3
    ##  2 Neoplasms                                      2.88e6 1643859326        175. 
    ##  3 Diseases of the blood and blood-forming organ… 3.97e5 1643859326         24.1
    ##  4 Endocrine, nutritional and metabolic diseases  2.44e6 1643859326        148. 
    ##  5 Mental and behavioural disorders               2.88e6 1643859326        175. 
    ##  6 Diseases of the nervous system                 1.62e6 1643859326         98.7
    ##  7 Diseases of the eye and adnexa                 1.25e4 1643859326          0.8
    ##  8 Diseases of the ear and mastoid process        4.60e3 1643859326          0.3
    ##  9 Diseases of the circulatory system             7.11e6 1643859326        433. 
    ## 10 Diseases of the respiratory system             3.78e6 1643859326        230. 
    ## # … with 12 more rows

``` r
# MCD - ICD Sub-Chapter
getData("D176", list(list("Group Results By", "D176.V13-level2")))
```

    ## # A tibble: 202 × 4
    ##    `MCD - ICD Sub-Chapter`                        Deaths Population `Crude Rate`
    ##    <chr>                                           <dbl>      <dbl> <chr>       
    ##  1 Intestinal infectious diseases                  55292 1643859326 3.4         
    ##  2 Tuberculosis                                     4433 1643859326 0.3         
    ##  3 Certain zoonotic bacterial diseases               242 1643859326 0.0         
    ##  4 Other bacterial diseases                       996151 1643859326 60.6        
    ##  5 Infections with a predominantly sexual mode o…    843 1643859326 0.1         
    ##  6 Other spirochaetal diseases                       372 1643859326 0.0         
    ##  7 Other diseases caused by chlamydiae                12 1643859326 Unreliable  
    ##  8 Rickettsioses                                     173 1643859326 0.0         
    ##  9 Viral infections of the central nervous system   3532 1643859326 0.2         
    ## 10 Arthropod-borne viral fevers and viral haemor…    608 1643859326 0.0         
    ## # … with 192 more rows

``` r
# Multiple Cause of death
getData("D176", list(list("Group Results By", "D176.V13-level3")))
```

    ## Error: 'NA' does not exist in current working directory ('/Users/joycerobbins/wonderapi/tests').

``` r
# MCD - ICD-10 113 Cause List
getData("D176", list(list("Group Results By", "D176.V15")))
```

    ## # A tibble: 137 × 4
    ##    `MCD - ICD-10 113 Cause List`                  Deaths Population `Crude Rate`
    ##    <chr>                                           <dbl>      <dbl>        <dbl>
    ##  1 Salmonella infections (A01-A02)                   401 1643859326          0  
    ##  2 Shigellosis and amebiasis (A03,A06)                53 1643859326          0  
    ##  3 Certain other intestinal infections (A04,A07-…  54838 1643859326          3.3
    ##  4 Tuberculosis (A16-A19)                           4433 1643859326          0.3
    ##  5 Respiratory tuberculosis (A16)                   3215 1643859326          0.2
    ##  6 Other tuberculosis (A17-A19)                     1257 1643859326          0.1
    ##  7 Whooping cough (A37)                               58 1643859326          0  
    ##  8 Scarlet fever and erysipelas (A38,A46)             24 1643859326          0  
    ##  9 Meningococcal infection (A39)                     142 1643859326          0  
    ## 10 Septicemia (A40-A41)                           939854 1643859326         57.2
    ## # … with 127 more rows
…
    ## # A tibble: 6 × 4
    ##   `UCD - Injury Intent`                      Deaths Population `Crude Rate`
    ##   <chr>                                       <dbl>      <dbl>        <dbl>
    ## 1 "Unintentional"                            691323 1643859326         42.1
    ## 2 "Suicide"                                  173817 1643859326         10.6
    ## 3 "Homicide"                                  79831 1643859326          4.9
    ## 4 "Undetermined "                             21613 1643859326          1.3
    ## 5 "Legal Intervention / Operations of War"     2518 1643859326          0.2
    ## 6 "Non-Injury, no intent classified"       12027034 1643859326        732.

``` r
getData("D176", list(list("Group Results By", "UCD - Injury Mechanism & All Other Leading Causes")))
```

    ## # A tibble: 67 × 4
    ##    `UCD - Injury Mechanism & All Other Leading …` Deaths Population `Crude Rate`
    ##    <chr>                                           <dbl>      <dbl>        <dbl>
    ##  1 Cut/Pierce                                      10638 1643859326          0.6
    ##  2 Drowning                                        17846 1643859326          1.1
    ##  3 Fall                                           152557 1643859326          9.3
    ##  4 Fire/Flame                                      12704 1643859326          0.8
    ##  5 Hot object/Substance                              320 1643859326          0  
    ##  6 Firearm                                        157334 1643859326          9.6
    ##  7 Machinery                                        1962 1643859326          0.1
    ##  8 Motor Vehicle Traffic                          145898 1643859326          8.9
    ##  9 Other Pedal cyclist                              1421 1643859326          0.1
    ## 10 Other Pedestrian                                 3508 1643859326          0.2
    ## # … with 57 more rows
…
