Introduction to wonderapi • wonderapi
…
This function requires an .xml query request file. To
obtain this file, create a query on CDC WONDER. Before clicking “Send”,
uncheck the “Show totals” button at the bottom, and take note of the
database code starting with “D” at the end of the URL.

After sending the query, click the “API Options” tab and then the
“Export API” button to download the query .xml.

Once you have this file, you can use it with the
send_query() function:

send_query("D76", "Underlying Cause of Death, 1999-2020_1710519087439-req.xml")

## # A tibble: 44 × 5
##    Year  Gender Deaths Population `Crude Rate`
##    <chr> <chr>   <dbl>      <dbl>        <dbl>
##  1 1999  Female  12291    1932563          6.4
##  2 1999  Male    15646    2026854          7.7
##  3 2000  Female  12317    1981845          6.2
##  4 2000  Male    15718    2076969          7.6
##  5 2001  Female  12091    1968011          6.1
##  6 2001  Male    15477    2057922          7.5
##  7 2002  Female  12317    1963747          6.3
##  8 2002  Male    15717    2057979          7.6
##  9 2003  Female  12123    1996415          6.1
## 10 2003  Male    15902    2093535          7.6
## # ℹ 34 more rows
…
