Request data from the CDC Wonder API — getData • wonderapi
…
    References

Inspired by this script from the wondr package, but provides more user-friendly options and better table display: /urlhttps://github.com/hrbrmstr/wondr/blob/master/README.md

    Examples

mylist <- list(
  list("And By", "Race"),
  list("And By", "Tobacco Use")
)

mydata <- getData("D66", mylist)
mydata
#> # A tibble: 57 × 3
#>     Year `Tobacco Use`          Births
#>    <dbl> <chr>                   <dbl>
#>  1  2007 Yes                    210242
#>  2  2007 No                    1805676
#>  3  2007 Unknown or Not Stated   45131
#>  4  2007 Not Reported          2255184
#>  5  2008 Yes                    215546
#>  6  2008 No                    1997233
#>  7  2008 Unknown or Not Stated   36348
#>  8  2008 Not Reported          1998567
#>  9  2009 Yes                    206895
#> 10  2009 No                    2007871
#> # ℹ 47 more rows
…
